Outlier Identification and Visualization
…
Rows: 3479 Columns: 8
── Column specification ────────────────────────────────────────────────────────
Delimiter: ","
chr (1): Address
dbl (3): Room, Price, Price(USD)
num (1): Area
lgl (3): Parking, Warehouse, Elevator

ℹ Use `spec()` to retrieve the full column specification for this data.
ℹ Specify the column types or set `show_col_types = FALSE` to quiet this message.

# examine the data
main

# A tibble: 3,479 × 8
    Area  Room Parking Warehouse Elevator Address             Price `Price(USD)`
   <dbl> <dbl> <lgl>   <lgl>     <lgl>    <chr>               <dbl>        <dbl>
 1    63     1 TRUE    TRUE      TRUE     Shahran            1.85e9       61667.
 2    60     1 TRUE    TRUE      TRUE     Shahran            1.85e9       61667.
 3    79     2 TRUE    TRUE      TRUE     Pardis             5.50e8       18333.
 4    95     2 TRUE    TRUE      TRUE     Shahrake Qods      9.02e8       30083.
 5   123     2 TRUE    TRUE      TRUE     Shahrake Gharb     7   e9      233333.
 6    70     2 TRUE    TRUE      FALSE    North Program Org… 2.05e9       68333.
 7    87     2 TRUE    TRUE      TRUE     Pardis             6   e8       20000 
 8    59     1 TRUE    TRUE      TRUE     Shahran            2.15e9       71667.
 9    54     2 TRUE    TRUE      FALSE    Andisheh           4.93e8       16433.
10    71     1 TRUE    TRUE      TRUE     West Ferdows Boul… 2.37e9       79000 
# ℹ 3,469 more rows
…
Subsetting the data

To demonstrate how to work with a smaller dataset, let’s use dplyr extract only the columns we want from our original dataset and rename the columns using more simple lower-case formatting for consistency. The use of pipes is demonstrated here as well. Pipes allow you to string together multiple operations in one command. The dataset now only contains area in meters squared and price in USD.

#store updated tibble
main_subset <- main %>% 
               select("Area", "Price(USD)") %>% 
               rename ("area" = "Area",  "price"="Price(USD)") 

#view the updated tibble
main_subset

# A tibble: 3,479 × 2
    area   price
   <dbl>   <dbl>
 1    63  61667.
 2    60  61667.
 3    79  18333.
 4    95  30083.
 5   123 233333.
 6    70  68333.
 7    87  20000 
 8    59  71667.
 9    54  16433.
10    71  79000 
# ℹ 3,469 more rows
…
Differential Visualization

A good approach to ensure the four large-area outliers stand out is to adjust their visual style separately from the other data points. That can be accomplished by adding an additional classification variable to the dataset and then using that variable to control color. Note that the classification variable is forced to be a factor-type variable which will be important during visualization.Note that the tibble format indicates the data type for each column. The area and price columns contain doubles and the class column contains a factor.

#add a binary variable to classify area as above or below some threshold
main_subset$class <- as_factor(ifelse(main_subset$area>2000, 1, 0))
main_subset

# A tibble: 3,479 × 3
    area   price class
   <dbl>   <dbl> <fct>
 1    63  61667. 0    
 2    60  61667. 0    
 3    79  18333. 0    
 4    95  30083. 0    
 5   123 233333. 0    
 6    70  68333. 0    
 7    87  20000  0    
 8    59  71667. 0    
 9    54  16433. 0    
10    71  79000  0    
# ℹ 3,469 more rows
…
