Custom ggplot2 Themes
…
#create 3 vectors of 50 numeric values each 
#values are sampled from the normal distribution
species_1<-c(runif(n=50, min=1.0, max=3.0))
species_2<-c(runif(n=50, min=2.5, max=6.5))
species_3<-c(runif(n=50, min=4.0, max=9.0))

#create a dataframe to organize the data vectors
t<-tibble(site, species_1, species_2, species_3)

#display the dataframe
t

# A tibble: 50 × 4
   site    species_1 species_2 species_3
   <chr>       <dbl>     <dbl>     <dbl>
 1 site_01      1.14      6.07      6.06
 2 site_02      2.75      5.15      7.59
 3 site_03      2.67      4.66      6.56
 4 site_04      1.13      3.79      7.07
 5 site_05      1.33      4.63      6.40
 6 site_06      2.81      6.04      7.62
 7 site_07      1.65      6.25      8.56
 8 site_08      1.25      5.02      4.89
 9 site_09      1.61      4.21      6.93
10 site_10      2.95      6.35      5.08
# ℹ 40 more rows
…
Be sure to compare this tibble versus the previous one until the change makes sense. Notice that this tidy tibble has many more rows.

CODE

#tidyr is useful for data manipulation and format standardization
library(tidyr)

#pivot the "wide" data to a "longer" format
#the column names will now be data points
t_tidy<- t %>% pivot_longer(!site, names_to = "species", values_to = "measurement")

#display the tidy tibble
t_tidy

# A tibble: 150 × 3
   site    species   measurement
   <chr>   <chr>           <dbl>
 1 site_01 species_1        1.14
 2 site_01 species_2        6.07
 3 site_01 species_3        6.06
 4 site_02 species_1        2.75
 5 site_02 species_2        5.15
 6 site_02 species_3        7.59
 7 site_03 species_1        2.67
 8 site_03 species_2        4.66
 9 site_03 species_3        6.56
10 site_04 species_1        1.13
# ℹ 140 more rows
…
