Analysis of COVID-19 Data | modules.utf8
…
Leaflet Map

Here is an interactive map showing all of our data points. The point radius size represents the number of confirmed infections. One problem with this is that the map shows all points for all locations stacked on top of eachother and does not really represent the time aspect of the data set very well.

How would you represent time AND spatial distribution on a map?

library(leaflet)

#filter new data set
#we will now make use of the lat and long data
filtered<-select(filter(confirmed, region %in% c("US")), -c('Province/State'))
filtered

## # A tibble: 247 x 59
##    region   Lat   Long `1/22/20` `1/23/20` `1/24/20` `1/25/20` `1/26/20` `1/27/20` `1/28/20` `1/29/20` `1/30/20` `1/31/20` `2/1/20`
##    <chr>  <dbl>  <dbl>     <dbl>     <dbl>     <dbl>     <dbl>     <dbl>     <dbl>     <dbl>     <dbl>     <dbl>     <dbl>    <dbl>
##  1 US      47.4 -121.          0         0         0         0         0         0         0         0         0         0        0
##  2 US      42.2  -74.9         0         0         0         0         0         0         0         0         0         0        0
##  3 US      36.1 -120.          0         0         0         0         0         0         0         0         0         0        0
##  4 US      42.2  -71.5         0         0         0         0         0         0         0         0         0         0        0
##  5 US      35.4  140.          0         0         0         0         0         0         0         0         0         0        0
##  6 US      37.6 -123.          0         0         0         0         0         0         0         0         0         0        0
##  7 US      33.0  -83.6         0         0         0         0         0         0         0         0         0         0        0
##  8 US      39.1 -105.          0         0         0         0         0         0         0         0         0         0        0
##  9 US      27.8  -81.7         0         0         0         0         0         0         0         0         0         0        0
## 10 US      40.3  -74.5         0         0         0         0         0         0         0         0         0         0        0
## # ... with 237 more rows, and 45 more variables: `2/2/20` <dbl>, `2/3/20` <dbl>, `2/4/20` <dbl>, `2/5/20` <dbl>, `2/6/20` <dbl>,
## #   `2/7/20` <dbl>, `2/8/20` <dbl>, `2/9/20` <dbl>, `2/10/20` <dbl>, `2/11/20` <dbl>, `2/12/20` <dbl>, `2/13/20` <dbl>,
## #   `2/14/20` <dbl>, `2/15/20` <dbl>, `2/16/20` <dbl>, `2/17/20` <dbl>, `2/18/20` <dbl>, `2/19/20` <dbl>, `2/20/20` <dbl>,
## #   `2/21/20` <dbl>, `2/22/20` <dbl>, `2/23/20` <dbl>, `2/24/20` <dbl>, `2/25/20` <dbl>, `2/26/20` <dbl>, `2/27/20` <dbl>,
## #   `2/28/20` <dbl>, `2/29/20` <dbl>, `3/1/20` <dbl>, `3/2/20` <dbl>, `3/3/20` <dbl>, `3/4/20` <dbl>, `3/5/20` <dbl>,
## #   `3/6/20` <dbl>, `3/7/20` <dbl>, `3/8/20` <dbl>, `3/9/20` <dbl>, `3/10/20` <dbl>, `3/11/20` <dbl>, `3/12/20` <dbl>,
## #   `3/13/20` <dbl>, `3/14/20` <dbl>, `3/15/20` <dbl>, `3/16/20` <dbl>, `3/17/20` <dbl>

#pivot and force dates as date type
pivoted<-filtered %>% pivot_longer(-c(region,Lat,Long), names_to = "date", values_to = "confirmed")
pivoted$date<-as.Date(pivoted$date, "%m/%d/%y")
pivoted

## # A tibble: 13,832 x 5
##    region   Lat  Long date       confirmed
##    <chr>  <dbl> <dbl> <date>         <dbl>
##  1 US      47.4 -121. 2020-01-22         0
##  2 US      47.4 -121. 2020-01-23         0
##  3 US      47.4 -121. 2020-01-24         0
##  4 US      47.4 -121. 2020-01-25         0
##  5 US      47.4 -121. 2020-01-26         0
##  6 US      47.4 -121. 2020-01-27         0
##  7 US      47.4 -121. 2020-01-28         0
##  8 US      47.4 -121. 2020-01-29         0
##  9 US      47.4 -121. 2020-01-30         0
## 10 US      47.4 -121. 2020-01-31         0
## # ... with 13,822 more rows
…
